{
	"blockchain": {
		"type": "quorum",
		"config": "../quorum.json"
	},
	"test": {
		"clients": 1,
		"rounds": [
			{
				"cmd": "greeter",
				"txNumbAndTps": [[100000,150]],
				"arguments": {"message": "mehello"},
				"callback": "benchmark/quorum/greetings/open.js"
			}
		]
	},
	"monitor": {
		"type": "docker",
		"docker": {
			"name": [
				"http://136.225.152.3:2375/quorum-examples_node1_1",
				"http://136.225.152.3:2375/quorum-examples_node2_1",
				"http://136.225.152.3:2375/quorum-examples_node3_1"
			]
		},
		"interval": 1
	}
}
